<?xml version="1.0" encoding="UTF-8" standalone="no"?>
<svg
   xmlns:dc="http://purl.org/dc/elements/1.1/"
   xmlns:cc="http://creativecommons.org/ns#"
   xmlns:rdf="http://www.w3.org/1999/02/22-rdf-syntax-ns#"
   xmlns:svg="http://www.w3.org/2000/svg"
   xmlns="http://www.w3.org/2000/svg"
   xmlns:xlink="http://www.w3.org/1999/xlink"
   id="svg4"
   version="1.1"
   viewBox="0 0 32 32">
  <metadata
     id="metadata10">
    <rdf:RDF>
      <cc:Work
         rdf:about="">
        <dc:format>image/svg+xml</dc:format>
        <dc:type
           rdf:resource="http://purl.org/dc/dcmitype/StillImage" />
        <dc:title></dc:title>
      </cc:Work>
    </rdf:RDF>
  </metadata>
  <defs
     id="defs8">
    <linearGradient
       gradientUnits="userSpaceOnUse"
       y2="-6966.9307"
       x2="42575.336"
       y1="-7078.7891"
       x1="42519.285"
       id="linearGradient6918"
       xlink:href="#linearGradient6924" />
    <linearGradient
       id="linearGradient6924">
      <stop
         id="stop6920"
         offset="0"
         style="stop-color:#ffffff;stop-opacity:0" />
      <stop
         style="stop-color:#ffffff;stop-opacity:0.5"
         offset="0.49517274"
         id="stop6926" />
      <stop
         id="stop6922"
         offset="1"
         style="stop-color:#fdfeff;stop-opacity:1" />
    </linearGradient>
  </defs>
  <path
     d="M 16,3 A 12.989672,12.989672 0 0 0 3.011723,15.990233 12.989672,12.989672 0 0 0 16,28.978515 12.989672,12.989672 0 0 0 28.990244,15.990233 12.989672,12.989672 0 0 0 16,3 Z m 0,2 a 10.989751,10.989751 0 0 1 10.990244,10.990233 10.989751,10.989751 0 0 1 -1.54493,5.580078 L 16.29688,9.71289 16.25778,9.66211 16.22848,9.62305 16.16008,9.53125 A 0.18437531,0.1376188 0 0 0 15.99016,9.46289 0.18437531,0.1376188 0 0 0 15.83977,9.53125 L 6.539063,21.552734 A 10.989751,10.989751 0 0 1 5.011723,15.990234 10.989751,10.989751 0 0 1 16,5 Z m 1.33594,9.335936 c 2.28063,2.940995 4.59117,5.955498 6.88281,8.919922 a 10.989751,10.989751 0 0 1 -3.76562,2.765625 z"
     id="path836" />
</svg>
