<?xml version="1.0" encoding="UTF-8" standalone="no"?>
<!-- Created with Inkscape (http://www.inkscape.org/) -->

<svg
   xmlns:dc="http://purl.org/dc/elements/1.1/"
   xmlns:cc="http://creativecommons.org/ns#"
   xmlns:rdf="http://www.w3.org/1999/02/22-rdf-syntax-ns#"
   xmlns:svg="http://www.w3.org/2000/svg"
   xmlns="http://www.w3.org/2000/svg"
   xmlns:sodipodi="http://sodipodi.sourceforge.net/DTD/sodipodi-0.dtd"
   xmlns:inkscape="http://www.inkscape.org/namespaces/inkscape"
   width="68.19883mm"
   height="37.099892mm"
   viewBox="0 0 68.19883 37.099891"
   version="1.1"
   id="svg7256"
   inkscape:version="0.92.4 (5da689c313, 2019-01-14)"
   sodipodi:docname="008.svg">
  <defs
     id="defs7250" />
  <sodipodi:namedview
     id="base"
     pagecolor="#ffffff"
     bordercolor="#666666"
     borderopacity="1.0"
     inkscape:pageopacity="0.0"
     inkscape:pageshadow="2"
     inkscape:zoom="1.979899"
     inkscape:cx="92.146514"
     inkscape:cy="88.832624"
     inkscape:document-units="mm"
     inkscape:current-layer="layer1"
     showgrid="false"
     fit-margin-top="0"
     fit-margin-left="0"
     fit-margin-right="0"
     fit-margin-bottom="0"
     inkscape:window-width="958"
     inkscape:window-height="1024"
     inkscape:window-x="960"
     inkscape:window-y="27"
     inkscape:window-maximized="0"
     inkscape:snap-object-midpoints="true" />
  <metadata
     id="metadata7253">
    <rdf:RDF>
      <cc:Work
         rdf:about="">
        <dc:format>image/svg+xml</dc:format>
        <dc:type
           rdf:resource="http://purl.org/dc/dcmitype/StillImage" />
        <dc:title></dc:title>
      </cc:Work>
    </rdf:RDF>
  </metadata>
  <g
     inkscape:label="Layer 1"
     inkscape:groupmode="layer"
     id="layer1"
     transform="translate(-39.983921,-74.877457)">
    <rect
       style="opacity:1;fill:#f0f0f0;fill-opacity:1;stroke:none;stroke-width:1.38606954;stroke-linecap:butt;stroke-linejoin:round;stroke-miterlimit:4;stroke-dasharray:none;stroke-opacity:1"
       id="rect7160"
       width="13.639709"
       height="14.250076"
       x="39.983921"
       y="74.877457" />
    <rect
       style="opacity:1;fill:#f0f0f0;fill-opacity:1;stroke:none;stroke-width:1.38606954;stroke-linecap:butt;stroke-linejoin:round;stroke-miterlimit:4;stroke-dasharray:none;stroke-opacity:1"
       id="rect7164"
       width="13.639709"
       height="14.250076"
       x="67.263351"
       y="74.877457" />
    <g
       style="font-style:normal;font-weight:400;font-size:37.5px;font-family:Inter;fill:#70b36b;fill-opacity:1;fill-rule:evenodd;stroke:#000000;stroke-width:1;stroke-linecap:square;stroke-linejoin:bevel;stroke-opacity:0"
       font-style="normal"
       transform="matrix(-0.08464545,0,0,0.08464545,158.41602,11.953211)"
       font-size="37.5"
       font-weight="400"
       id="g3507">
      <path
         style="vector-effect:non-scaling-stroke;fill:#70b36b;fill-opacity:1;fill-rule:evenodd"
         inkscape:connector-curvature="0"
         d="m 1357.11,1018.48 -25.06,-25.054 c 6.42,-6.412 15.27,-10.378 25.06,-10.378 v 35.432"
         id="path3505" />
    </g>
    <g
       aria-label="Sí"
       transform="matrix(0.26458333,0,0,0.26458333,49.877802,260.13043)"
       style="font-style:normal;font-weight:normal;font-size:16px;line-height:1.25;font-family:sans-serif;letter-spacing:0px;word-spacing:0px;fill:#000000;fill-opacity:1;stroke:none"
       id="flowRoot3509">
      <path
         d="m 0.13671875,-623.17969 v 1.53907 q -0.8984375,-0.42969 -1.69531245,-0.64063 -0.7968751,-0.21094 -1.5390626,-0.21094 -1.2890624,0 -1.9921874,0.5 -0.6953125,0.5 -0.6953125,1.42188 0,0.77344 0.4609375,1.17187 0.46875,0.39063 1.7656249,0.63282 l 0.953125,0.19531 q 1.76562505,0.33594 2.60156255,1.1875 0.84375,0.84375 0.84375,2.26562 0,1.69532 -1.140625,2.57032 -1.13281245,0.875 -3.32812505,0.875 -0.8281249,0 -1.7656249,-0.1875 -0.9296875,-0.1875 -1.9296875,-0.55469 v -1.625 q 0.9609375,0.53906 1.8828125,0.8125 0.921875,0.27344 1.8124999,0.27344 1.3515625,0 2.0859376,-0.53125 0.73437495,-0.53125 0.73437495,-1.51563 0,-0.85937 -0.53124995,-1.34375 -0.5234375,-0.48437 -1.7265626,-0.72656 l -0.9609374,-0.1875 q -1.765625,-0.35156 -2.5546875,-1.10156 -0.7890625,-0.75 -0.7890625,-2.08594 0,-1.54688 1.0859375,-2.4375 1.09375,-0.89063 3.0078124,-0.89063 0.8203125,0 1.6718751,0.14844 0.85156245,0.14844 1.74218745,0.44531 z"
         id="path8210"
         inkscape:connector-curvature="0" />
      <path
         d="m 5.0429687,-624.69531 h 1.5546875 l -2.546875,2.9375 H 2.8554688 Z m -1.8046874,4.04687 h 1.4374999 v 8.75 H 3.2382813 Z m 0.71875,-0.21093 z"
         id="path8212"
         inkscape:connector-curvature="0" />
    </g>
    <g
       style="font-style:normal;font-weight:400;font-size:37.5px;font-family:Inter;fill:#70b36b;fill-opacity:1;fill-rule:evenodd;stroke:#000000;stroke-width:1;stroke-linecap:square;stroke-linejoin:bevel;stroke-opacity:0"
       font-style="normal"
       transform="matrix(-0.08464546,0,0,0.08464546,158.51105,18.133185)"
       font-size="37.5"
       font-weight="400"
       id="g3507-8">
      <path
         style="vector-effect:non-scaling-stroke;fill:#b74444;fill-opacity:1;fill-rule:evenodd"
         inkscape:connector-curvature="0"
         d="m 1357.11,1018.48 -25.06,-25.054 c 6.42,-6.412 15.27,-10.378 25.06,-10.378 v 35.432"
         id="path3505-5" />
    </g>
    <g
       aria-label="No"
       transform="matrix(0.26458333,0,0,0.26458333,49.972831,266.31039)"
       style="font-style:normal;font-weight:normal;font-size:16px;line-height:1.25;font-family:sans-serif;letter-spacing:0px;word-spacing:0px;fill:#000000;fill-opacity:1;stroke:none"
       id="flowRoot3509-6">
      <path
         d="m -6.8554687,-623.5625 h 2.125 l 5.17187495,9.75781 v -9.75781 H 1.9726562 v 11.66406 h -2.12499995 l -5.17187495,-9.75781 v 9.75781 h -1.53125 z"
         id="path8205"
         inkscape:connector-curvature="0" />
      <path
         d="m 8.4414063,-619.64062 q -1.1562501,0 -1.8281251,0.90625 -0.671875,0.89843 -0.671875,2.46875 0,1.57031 0.6640625,2.47656 0.671875,0.89844 1.8359376,0.89844 1.1484375,0 1.8203127,-0.90625 0.671875,-0.90625 0.671875,-2.46875 0,-1.55469 -0.671875,-2.46094 -0.6718752,-0.91406 -1.8203127,-0.91406 z m 0,-1.21875 q 1.8749997,0 2.9453127,1.21875 1.070312,1.21875 1.070312,3.375 0,2.14843 -1.070312,3.375 -1.070313,1.21875 -2.9453127,1.21875 -1.8828126,0 -2.9531251,-1.21875 -1.0625,-1.22657 -1.0625,-3.375 0,-2.15625 1.0625,-3.375 1.0703125,-1.21875 2.9531251,-1.21875 z"
         id="path8207"
         inkscape:connector-curvature="0" />
    </g>
    <g
       id="g3637"
       font-weight="400"
       font-size="37.5"
       transform="matrix(-0.08464545,0,0,0.08464545,173.16133,11.953211)"
       font-style="normal"
       style="font-style:normal;font-weight:400;font-size:37.5px;font-family:Inter;fill:#ffca4c;fill-opacity:1;fill-rule:evenodd;stroke:#000000;stroke-width:1;stroke-linecap:square;stroke-linejoin:bevel;stroke-opacity:0">
      <path
         id="path3635"
         d="m 1357.11,1018.48 -25.06,-25.054 c 6.42,-6.412 15.27,-10.378 25.06,-10.378 v 35.432"
         inkscape:connector-curvature="0"
         style="vector-effect:non-scaling-stroke;fill:#ffca4c;fill-opacity:1;fill-rule:evenodd" />
    </g>
    <g
       aria-label="Planta 1"
       transform="matrix(0.26458333,0,0,0.26458333,64.623113,260.13043)"
       style="font-style:normal;font-weight:normal;font-size:16px;line-height:1.25;font-family:sans-serif;letter-spacing:0px;word-spacing:0px;fill:#000000;fill-opacity:1;stroke:none"
       id="flowRoot3645">
      <path
         d="m -5.2773437,-622.26562 v 4.38281 h 1.9843749 q 1.1015625,0 1.7031251,-0.57031 0.60156245,-0.57032 0.60156245,-1.625 0,-1.04688 -0.60156245,-1.61719 -0.6015626,-0.57031 -1.7031251,-0.57031 z m -1.578125,-1.29688 h 3.5624999 q 1.9609376,0 2.96093755,0.89063 1.0078125,0.88281 1.0078125,2.59375 0,1.72656 -1.0078125,2.60937 -0.99999995,0.88281 -2.96093755,0.88281 h -1.9843749 v 4.6875 h -1.578125 z"
         id="path8190"
         inkscape:connector-curvature="0" />
      <path
         d="m 2.7382813,-624.05469 h 1.4374999 v 12.15625 H 2.7382813 Z"
         id="path8192"
         inkscape:connector-curvature="0" />
      <path
         d="m 11.152344,-616.29687 q -1.7421877,0 -2.4140627,0.39843 -0.671875,0.39844 -0.671875,1.35938 0,0.76562 0.5,1.21875 0.5078125,0.44531 1.375,0.44531 1.1953127,0 1.9140627,-0.84375 0.726562,-0.85156 0.726562,-2.25781 v -0.32031 z m 2.867187,-0.59375 v 4.99218 h -1.4375 v -1.32812 q -0.492187,0.79687 -1.226562,1.17969 -0.734375,0.375 -1.7968752,0.375 -1.34375,0 -2.1406251,-0.75 -0.7890625,-0.75782 -0.7890625,-2.02344 0,-1.47656 0.984375,-2.22656 0.9921876,-0.75 2.9531248,-0.75 h 2.015625 v -0.14063 q 0,-0.99219 -0.65625,-1.53125 -0.648437,-0.54687 -1.828125,-0.54687 -0.7499997,0 -1.4609372,0.17968 -0.7109376,0.17969 -1.3671876,0.53907 V -620.25 q 0.7890626,-0.30469 1.5312501,-0.45312 0.7421875,-0.15625 1.4453127,-0.15625 1.898437,0 2.835937,0.98437 0.9375,0.98438 0.9375,2.98438 z"
         id="path8194"
         inkscape:connector-curvature="0" />
      <path
         d="m 24.261719,-617.17969 v 5.28125 h -1.4375 v -5.23437 q 0,-1.24219 -0.484375,-1.85938 -0.484375,-0.61718 -1.453125,-0.61718 -1.164063,0 -1.835938,0.74218 -0.671875,0.74219 -0.671875,2.02344 v 4.94531 h -1.445312 v -8.75 h 1.445312 v 1.35938 q 0.515625,-0.78906 1.210938,-1.17969 0.703125,-0.39062 1.617187,-0.39062 1.507813,0 2.28125,0.9375 0.773438,0.92968 0.773438,2.74218 z"
         id="path8196"
         inkscape:connector-curvature="0" />
      <path
         d="m 28.566406,-623.13281 v 2.48437 h 2.960938 v 1.11719 h -2.960938 v 4.75 q 0,1.07031 0.289063,1.375 0.296875,0.30469 1.195312,0.30469 h 1.476563 v 1.20312 h -1.476563 q -1.664062,0 -2.296875,-0.61718 -0.632812,-0.625 -0.632812,-2.26563 v -4.75 h -1.054688 v -1.11719 h 1.054688 v -2.48437 z"
         id="path8198"
         inkscape:connector-curvature="0" />
      <path
         d="m 37.402344,-616.29687 q -1.742188,0 -2.414063,0.39843 -0.671875,0.39844 -0.671875,1.35938 0,0.76562 0.5,1.21875 0.507813,0.44531 1.375,0.44531 1.195313,0 1.914063,-0.84375 0.726562,-0.85156 0.726562,-2.25781 v -0.32031 z m 2.867187,-0.59375 v 4.99218 h -1.4375 v -1.32812 q -0.492187,0.79687 -1.226562,1.17969 -0.734375,0.375 -1.796875,0.375 -1.34375,0 -2.140625,-0.75 -0.789063,-0.75782 -0.789063,-2.02344 0,-1.47656 0.984375,-2.22656 0.992188,-0.75 2.953125,-0.75 h 2.015625 v -0.14063 q 0,-0.99219 -0.65625,-1.53125 -0.648437,-0.54687 -1.828125,-0.54687 -0.75,0 -1.460937,0.17968 -0.710938,0.17969 -1.367188,0.53907 V -620.25 q 0.789063,-0.30469 1.53125,-0.45312 0.742188,-0.15625 1.445313,-0.15625 1.898437,0 2.835937,0.98437 0.9375,0.98438 0.9375,2.98438 z"
         id="path8200"
         inkscape:connector-curvature="0" />
      <path
         d="m 48.808594,-613.22656 h 2.578125 v -8.89844 l -2.804688,0.5625 V -623 l 2.789063,-0.5625 h 1.578125 v 10.33594 h 2.578125 v 1.32812 h -6.71875 z"
         id="path8202"
         inkscape:connector-curvature="0" />
    </g>
    <g
       id="g3649"
       font-weight="400"
       font-size="37.5"
       transform="matrix(-0.08464546,0,0,0.08464546,173.25637,18.133185)"
       font-style="normal"
       style="font-style:normal;font-weight:400;font-size:37.5px;font-family:Inter;fill:#c5afd9;fill-opacity:1;fill-rule:evenodd;stroke:#000000;stroke-width:1;stroke-linecap:square;stroke-linejoin:bevel;stroke-opacity:0">
      <path
         id="path3647"
         d="m 1357.11,1018.48 -25.06,-25.054 c 6.42,-6.412 15.27,-10.378 25.06,-10.378 v 35.432"
         inkscape:connector-curvature="0"
         style="vector-effect:non-scaling-stroke;fill:#c5afd9;fill-opacity:1;fill-rule:evenodd" />
    </g>
    <g
       aria-label="Planta 2"
       transform="matrix(0.26458333,0,0,0.26458333,64.718143,266.31039)"
       style="font-style:normal;font-weight:normal;font-size:16px;line-height:1.25;font-family:sans-serif;letter-spacing:0px;word-spacing:0px;fill:#000000;fill-opacity:1;stroke:none"
       id="flowRoot3657">
      <path
         d="m -5.2773437,-622.26562 v 4.38281 h 1.9843749 q 1.1015625,0 1.7031251,-0.57031 0.60156245,-0.57032 0.60156245,-1.625 0,-1.04688 -0.60156245,-1.61719 -0.6015626,-0.57031 -1.7031251,-0.57031 z m -1.578125,-1.29688 h 3.5624999 q 1.9609376,0 2.96093755,0.89063 1.0078125,0.88281 1.0078125,2.59375 0,1.72656 -1.0078125,2.60937 -0.99999995,0.88281 -2.96093755,0.88281 h -1.9843749 v 4.6875 h -1.578125 z"
         id="path8175"
         inkscape:connector-curvature="0" />
      <path
         d="m 2.7382813,-624.05469 h 1.4374999 v 12.15625 H 2.7382813 Z"
         id="path8177"
         inkscape:connector-curvature="0" />
      <path
         d="m 11.152344,-616.29687 q -1.7421877,0 -2.4140627,0.39843 -0.671875,0.39844 -0.671875,1.35938 0,0.76562 0.5,1.21875 0.5078125,0.44531 1.375,0.44531 1.1953127,0 1.9140627,-0.84375 0.726562,-0.85156 0.726562,-2.25781 v -0.32031 z m 2.867187,-0.59375 v 4.99218 h -1.4375 v -1.32812 q -0.492187,0.79687 -1.226562,1.17969 -0.734375,0.375 -1.7968752,0.375 -1.34375,0 -2.1406251,-0.75 -0.7890625,-0.75782 -0.7890625,-2.02344 0,-1.47656 0.984375,-2.22656 0.9921876,-0.75 2.9531248,-0.75 h 2.015625 v -0.14063 q 0,-0.99219 -0.65625,-1.53125 -0.648437,-0.54687 -1.828125,-0.54687 -0.7499997,0 -1.4609372,0.17968 -0.7109376,0.17969 -1.3671876,0.53907 V -620.25 q 0.7890626,-0.30469 1.5312501,-0.45312 0.7421875,-0.15625 1.4453127,-0.15625 1.898437,0 2.835937,0.98437 0.9375,0.98438 0.9375,2.98438 z"
         id="path8179"
         inkscape:connector-curvature="0" />
      <path
         d="m 24.261719,-617.17969 v 5.28125 h -1.4375 v -5.23437 q 0,-1.24219 -0.484375,-1.85938 -0.484375,-0.61718 -1.453125,-0.61718 -1.164063,0 -1.835938,0.74218 -0.671875,0.74219 -0.671875,2.02344 v 4.94531 h -1.445312 v -8.75 h 1.445312 v 1.35938 q 0.515625,-0.78906 1.210938,-1.17969 0.703125,-0.39062 1.617187,-0.39062 1.507813,0 2.28125,0.9375 0.773438,0.92968 0.773438,2.74218 z"
         id="path8181"
         inkscape:connector-curvature="0" />
      <path
         d="m 28.566406,-623.13281 v 2.48437 h 2.960938 v 1.11719 h -2.960938 v 4.75 q 0,1.07031 0.289063,1.375 0.296875,0.30469 1.195312,0.30469 h 1.476563 v 1.20312 h -1.476563 q -1.664062,0 -2.296875,-0.61718 -0.632812,-0.625 -0.632812,-2.26563 v -4.75 h -1.054688 v -1.11719 h 1.054688 v -2.48437 z"
         id="path8183"
         inkscape:connector-curvature="0" />
      <path
         d="m 37.402344,-616.29687 q -1.742188,0 -2.414063,0.39843 -0.671875,0.39844 -0.671875,1.35938 0,0.76562 0.5,1.21875 0.507813,0.44531 1.375,0.44531 1.195313,0 1.914063,-0.84375 0.726562,-0.85156 0.726562,-2.25781 v -0.32031 z m 2.867187,-0.59375 v 4.99218 h -1.4375 v -1.32812 q -0.492187,0.79687 -1.226562,1.17969 -0.734375,0.375 -1.796875,0.375 -1.34375,0 -2.140625,-0.75 -0.789063,-0.75782 -0.789063,-2.02344 0,-1.47656 0.984375,-2.22656 0.992188,-0.75 2.953125,-0.75 h 2.015625 v -0.14063 q 0,-0.99219 -0.65625,-1.53125 -0.648437,-0.54687 -1.828125,-0.54687 -0.75,0 -1.460937,0.17968 -0.710938,0.17969 -1.367188,0.53907 V -620.25 q 0.789063,-0.30469 1.53125,-0.45312 0.742188,-0.15625 1.445313,-0.15625 1.898437,0 2.835937,0.98437 0.9375,0.98438 0.9375,2.98438 z"
         id="path8185"
         inkscape:connector-curvature="0" />
      <path
         d="m 49.894531,-613.22656 h 5.507813 v 1.32812 h -7.40625 v -1.32812 q 0.898437,-0.92969 2.445312,-2.49219 1.554688,-1.57031 1.953125,-2.02344 0.757813,-0.85156 1.054688,-1.4375 0.304687,-0.59375 0.304687,-1.16406 0,-0.92969 -0.65625,-1.51562 -0.648437,-0.58594 -1.695312,-0.58594 -0.742188,0 -1.570313,0.25781 -0.820312,0.25781 -1.757812,0.78125 V -623 q 0.953125,-0.38281 1.78125,-0.57812 0.828125,-0.19532 1.515625,-0.19532 1.8125,0 2.890625,0.90625 1.078125,0.90625 1.078125,2.42188 0,0.71875 -0.273438,1.36719 -0.265625,0.64062 -0.976562,1.51562 -0.195313,0.22656 -1.242188,1.3125 -1.046875,1.07813 -2.953125,3.02344 z"
         id="path8187"
         inkscape:connector-curvature="0" />
    </g>
    <g
       aria-label="#1"
       transform="matrix(0.26458333,0,0,0.26458333,117.56125,277.82038)"
       style="font-style:normal;font-weight:normal;font-size:16px;line-height:1.25;font-family:sans-serif;letter-spacing:0px;word-spacing:0px;fill:#000000;fill-opacity:1;stroke:none"
       id="flowRoot7104">
      <path
         d="m -277.33789,-756.24414 h -2.27344 l -0.65625,2.60937 h 2.28906 z m -1.17188,-4.44531 -0.8125,3.24218 h 2.28125 l 0.82032,-3.24218 h 1.25 l -0.80469,3.24218 h 2.4375 v 1.20313 h -2.74219 l -0.64062,2.60937 h 2.48437 v 1.19532 h -2.78906 l -0.8125,3.23437 h -1.25 l 0.80469,-3.23437 h -2.28907 l -0.80468,3.23437 h -1.25782 l 0.8125,-3.23437 h -2.46093 v -1.19532 h 2.75 l 0.65625,-2.60937 h -2.51563 v -1.20313 h 2.82031 l 0.79688,-3.24218 z"
         id="path8130"
         inkscape:connector-curvature="0" />
      <path
         d="m -270.12695,-750.5332 h 2.57812 v -8.89844 l -2.80469,0.5625 v -1.4375 l 2.78907,-0.5625 h 1.57812 v 10.33594 h 2.57813 v 1.32812 h -6.71875 z"
         id="path8132"
         inkscape:connector-curvature="0" />
    </g>
    <g
       aria-label="#2"
       transform="matrix(0.26458333,0,0,0.26458333,131.03914,277.82038)"
       style="font-style:normal;font-weight:normal;font-size:16px;line-height:1.25;font-family:sans-serif;letter-spacing:0px;word-spacing:0px;fill:#000000;fill-opacity:1;stroke:none"
       id="flowRoot7112">
      <path
         d="m -277.33789,-756.24414 h -2.27344 l -0.65625,2.60937 h 2.28906 z m -1.17188,-4.44531 -0.8125,3.24218 h 2.28125 l 0.82032,-3.24218 h 1.25 l -0.80469,3.24218 h 2.4375 v 1.20313 h -2.74219 l -0.64062,2.60937 h 2.48437 v 1.19532 h -2.78906 l -0.8125,3.23437 h -1.25 l 0.80469,-3.23437 h -2.28907 l -0.80468,3.23437 h -1.25782 l 0.8125,-3.23437 h -2.46093 v -1.19532 h 2.75 l 0.65625,-2.60937 h -2.51563 v -1.20313 h 2.82031 l 0.79688,-3.24218 z"
         id="path8125"
         inkscape:connector-curvature="0" />
      <path
         d="m -269.04102,-750.5332 h 5.50782 v 1.32812 h -7.40625 v -1.32812 q 0.89843,-0.92969 2.44531,-2.49219 1.55469,-1.57031 1.95312,-2.02344 0.75782,-0.85156 1.05469,-1.4375 0.30469,-0.59375 0.30469,-1.16406 0,-0.92969 -0.65625,-1.51563 -0.64844,-0.58593 -1.69531,-0.58593 -0.74219,0 -1.57032,0.25781 -0.82031,0.25781 -1.75781,0.78125 v -1.59375 q 0.95313,-0.38281 1.78125,-0.57813 0.82813,-0.19531 1.51563,-0.19531 1.8125,0 2.89062,0.90625 1.07813,0.90625 1.07813,2.42188 0,0.71875 -0.27344,1.36718 -0.26563,0.64063 -0.97656,1.51563 -0.19532,0.22656 -1.24219,1.3125 -1.04688,1.07812 -2.95313,3.02344 z"
         id="path8127"
         inkscape:connector-curvature="0" />
    </g>
    <g
       aria-label="#3"
       transform="matrix(0.26458333,0,0,0.26458333,144.51704,277.82038)"
       style="font-style:normal;font-weight:normal;font-size:16px;line-height:1.25;font-family:sans-serif;letter-spacing:0px;word-spacing:0px;fill:#000000;fill-opacity:1;stroke:none"
       id="flowRoot7120">
      <path
         d="m -277.33789,-756.24414 h -2.27344 l -0.65625,2.60937 h 2.28906 z m -1.17188,-4.44531 -0.8125,3.24218 h 2.28125 l 0.82032,-3.24218 h 1.25 l -0.80469,3.24218 h 2.4375 v 1.20313 h -2.74219 l -0.64062,2.60937 h 2.48437 v 1.19532 h -2.78906 l -0.8125,3.23437 h -1.25 l 0.80469,-3.23437 h -2.28907 l -0.80468,3.23437 h -1.25782 l 0.8125,-3.23437 h -2.46093 v -1.19532 h 2.75 l 0.65625,-2.60937 h -2.51563 v -1.20313 h 2.82031 l 0.79688,-3.24218 z"
         id="path8120"
         inkscape:connector-curvature="0" />
      <path
         d="m -265.61914,-755.49414 q 1.13281,0.24219 1.76562,1.00781 0.64063,0.76563 0.64063,1.89063 0,1.72656 -1.1875,2.67187 -1.1875,0.94531 -3.375,0.94531 -0.73438,0 -1.51563,-0.14843 -0.77343,-0.14063 -1.60156,-0.42969 v -1.52344 q 0.65625,0.38281 1.4375,0.57813 0.78125,0.19531 1.63281,0.19531 1.48438,0 2.25782,-0.58594 0.78125,-0.58594 0.78125,-1.70312 0,-1.03125 -0.72657,-1.60938 -0.71875,-0.58594 -2.00781,-0.58594 h -1.35937 v -1.29687 h 1.42187 q 1.16406,0 1.78125,-0.46094 0.61719,-0.46875 0.61719,-1.34375 0,-0.89844 -0.64063,-1.375 -0.63281,-0.48437 -1.82031,-0.48437 -0.64844,0 -1.39062,0.14062 -0.74219,0.14063 -1.63282,0.4375 v -1.40625 q 0.89844,-0.25 1.67969,-0.375 0.78906,-0.125 1.48438,-0.125 1.79687,0 2.84375,0.82031 1.04687,0.8125 1.04687,2.20313 0,0.96875 -0.55469,1.64062 -0.55468,0.66407 -1.57812,0.92188 z"
         id="path8122"
         inkscape:connector-curvature="0" />
    </g>
    <g
       aria-label="#4"
       transform="matrix(0.26458333,0,0,0.26458333,157.99492,277.82038)"
       style="font-style:normal;font-weight:normal;font-size:16px;line-height:1.25;font-family:sans-serif;letter-spacing:0px;word-spacing:0px;fill:#000000;fill-opacity:1;stroke:none"
       id="flowRoot7128">
      <path
         d="m -277.33789,-756.24414 h -2.27344 l -0.65625,2.60937 h 2.28906 z m -1.17188,-4.44531 -0.8125,3.24218 h 2.28125 l 0.82032,-3.24218 h 1.25 l -0.80469,3.24218 h 2.4375 v 1.20313 h -2.74219 l -0.64062,2.60937 h 2.48437 v 1.19532 h -2.78906 l -0.8125,3.23437 h -1.25 l 0.80469,-3.23437 h -2.28907 l -0.80468,3.23437 h -1.25782 l 0.8125,-3.23437 h -2.46093 v -1.19532 h 2.75 l 0.65625,-2.60937 h -2.51563 v -1.20313 h 2.82031 l 0.79688,-3.24218 z"
         id="path8115"
         inkscape:connector-curvature="0" />
      <path
         d="m -266.06445,-759.49414 -3.98438,6.22656 h 3.98438 z m -0.41407,-1.375 h 1.98438 v 7.60156 h 1.66406 v 1.3125 h -1.66406 v 2.75 h -1.57031 v -2.75 h -5.26563 v -1.52344 z"
         id="path8117"
         inkscape:connector-curvature="0" />
    </g>
    <path
       style="opacity:1;fill:#f0f0f0;fill-opacity:1;stroke:none;stroke-width:0.3666952;stroke-linecap:butt;stroke-linejoin:round;stroke-miterlimit:4;stroke-dasharray:none;stroke-opacity:1"
       d="m 42.518822,107.1383 h 3.608488 v 3.76996 h -3.608488 z"
       id="rect7168"
       inkscape:connector-curvature="0" />
    <g
       aria-label="Incluido en la métrica"
       transform="matrix(0.26458333,0,0,0.26458333,50.002295,272.35921)"
       style="font-style:normal;font-weight:normal;font-size:16px;line-height:1.25;font-family:sans-serif;letter-spacing:0px;word-spacing:0px;fill:#000000;fill-opacity:1;stroke:none"
       id="flowRoot7192">
      <path
         d="m -6.8554687,-623.5625 h 1.578125 v 11.66406 h -1.578125 z"
         id="path8135"
         inkscape:connector-curvature="0" />
      <path
         d="m 5.0742187,-617.17969 v 5.28125 H 3.6367188 v -5.23437 q 0,-1.24219 -0.484375,-1.85938 -0.484375,-0.61718 -1.4531251,-0.61718 -1.16406245,0 -1.83593745,0.74218 -0.671875,0.74219 -0.671875,2.02344 v 4.94531 H -2.2539063 v -8.75 h 1.44531255 v 1.35938 q 0.515625,-0.78906 1.2109375,-1.17969 0.70312495,-0.39062 1.61718755,-0.39062 1.5078125,0 2.2812499,0.9375 0.7734375,0.92968 0.7734375,2.74218 z"
         id="path8137"
         inkscape:connector-curvature="0" />
      <path
         d="m 14.253906,-620.3125 v 1.34375 q -0.609375,-0.33594 -1.226562,-0.5 -0.609375,-0.17187 -1.234375,-0.17187 -1.398438,0 -2.1718752,0.89062 -0.7734375,0.88281 -0.7734375,2.48438 0,1.60156 0.7734375,2.49218 0.7734372,0.88282 2.1718752,0.88282 0.625,0 1.234375,-0.16407 0.617187,-0.17187 1.226562,-0.50781 v 1.32813 q -0.601562,0.28125 -1.25,0.42187 -0.640625,0.14063 -1.367187,0.14063 -1.9765627,0 -3.1406252,-1.24219 -1.1640626,-1.24219 -1.1640626,-3.35156 0,-2.14063 1.1718751,-3.36719 1.1796875,-1.22656 3.2265627,-1.22656 0.664062,0 1.296875,0.14062 0.632812,0.13281 1.226562,0.40625 z"
         id="path8139"
         inkscape:connector-curvature="0" />
      <path
         d="m 16.769531,-624.05469 h 1.4375 v 12.15625 h -1.4375 z"
         id="path8141"
         inkscape:connector-curvature="0" />
      <path
         d="m 21.058594,-615.35156 v -5.29688 h 1.4375 v 5.24219 q 0,1.24219 0.484375,1.86719 0.484375,0.61719 1.453125,0.61719 1.164062,0 1.835937,-0.74219 0.679688,-0.74219 0.679688,-2.02344 v -4.96094 h 1.4375 v 8.75 h -1.4375 v -1.34375 q -0.523438,0.79688 -1.21875,1.1875 -0.6875,0.38282 -1.601563,0.38282 -1.507812,0 -2.289062,-0.9375 -0.78125,-0.9375 -0.78125,-2.74219 z m 3.617187,-5.50781 z"
         id="path8143"
         inkscape:connector-curvature="0" />
      <path
         d="m 31.363281,-620.64844 h 1.4375 v 8.75 h -1.4375 z m 0,-3.40625 h 1.4375 v 1.82032 h -1.4375 z"
         id="path8145"
         inkscape:connector-curvature="0" />
      <path
         d="m 41.558594,-619.32031 v -4.73438 h 1.4375 v 12.15625 h -1.4375 v -1.3125 q -0.453125,0.78125 -1.148438,1.16407 -0.6875,0.375 -1.65625,0.375 -1.585937,0 -2.585937,-1.26563 -0.992188,-1.26562 -0.992188,-3.32812 0,-2.0625 0.992188,-3.32813 1,-1.26562 2.585937,-1.26562 0.96875,0 1.65625,0.38281 0.695313,0.375 1.148438,1.15625 z m -4.898438,3.05469 q 0,1.58593 0.648438,2.49218 0.65625,0.89844 1.796875,0.89844 1.140625,0 1.796875,-0.89844 0.65625,-0.90625 0.65625,-2.49218 0,-1.58594 -0.65625,-2.48438 -0.65625,-0.90625 -1.796875,-0.90625 -1.140625,0 -1.796875,0.90625 -0.648438,0.89844 -0.648438,2.48438 z"
         id="path8147"
         inkscape:connector-curvature="0" />
      <path
         d="m 49.347656,-619.64062 q -1.15625,0 -1.828125,0.90625 -0.671875,0.89843 -0.671875,2.46875 0,1.57031 0.664063,2.47656 0.671875,0.89844 1.835937,0.89844 1.148438,0 1.820313,-0.90625 0.671875,-0.90625 0.671875,-2.46875 0,-1.55469 -0.671875,-2.46094 -0.671875,-0.91406 -1.820313,-0.91406 z m 0,-1.21875 q 1.875,0 2.945313,1.21875 1.070312,1.21875 1.070312,3.375 0,2.14843 -1.070312,3.375 -1.070313,1.21875 -2.945313,1.21875 -1.882812,0 -2.953125,-1.21875 -1.0625,-1.22657 -1.0625,-3.375 0,-2.15625 1.0625,-3.375 1.070313,-1.21875 2.953125,-1.21875 z"
         id="path8149"
         inkscape:connector-curvature="0" />
      <path
         d="m 68.316406,-616.63281 v 0.70312 h -6.609375 q 0.09375,1.48438 0.890625,2.26563 0.804688,0.77344 2.234375,0.77344 0.828125,0 1.601563,-0.20313 0.78125,-0.20312 1.546875,-0.60937 v 1.35937 q -0.773438,0.32813 -1.585938,0.5 -0.8125,0.17188 -1.648437,0.17188 -2.09375,0 -3.320313,-1.21875 -1.21875,-1.21875 -1.21875,-3.29688 0,-2.14844 1.15625,-3.40625 1.164063,-1.26562 3.132813,-1.26562 1.765625,0 2.789062,1.14062 1.03125,1.13281 1.03125,3.08594 z m -1.4375,-0.42188 q -0.01563,-1.17968 -0.664062,-1.88281 -0.640625,-0.70312 -1.703125,-0.70312 -1.203125,0 -1.929688,0.67968 -0.71875,0.67969 -0.828125,1.91407 z"
         id="path8151"
         inkscape:connector-curvature="0" />
      <path
         d="m 77.949219,-617.17969 v 5.28125 h -1.4375 v -5.23437 q 0,-1.24219 -0.484375,-1.85938 -0.484375,-0.61718 -1.453125,-0.61718 -1.164063,0 -1.835938,0.74218 -0.671875,0.74219 -0.671875,2.02344 v 4.94531 h -1.445312 v -8.75 h 1.445312 v 1.35938 q 0.515625,-0.78906 1.210938,-1.17969 0.703125,-0.39062 1.617187,-0.39062 1.507813,0 2.28125,0.9375 0.773438,0.92968 0.773438,2.74218 z"
         id="path8153"
         inkscape:connector-curvature="0" />
      <path
         d="m 85.925781,-624.05469 h 1.4375 v 12.15625 h -1.4375 z"
         id="path8155"
         inkscape:connector-curvature="0" />
      <path
         d="m 94.339844,-616.29687 q -1.742188,0 -2.414063,0.39843 -0.671875,0.39844 -0.671875,1.35938 0,0.76562 0.5,1.21875 0.507813,0.44531 1.375,0.44531 1.195313,0 1.914063,-0.84375 0.726562,-0.85156 0.726562,-2.25781 v -0.32031 z m 2.867187,-0.59375 v 4.99218 h -1.4375 v -1.32812 q -0.492187,0.79687 -1.226562,1.17969 -0.734375,0.375 -1.796875,0.375 -1.34375,0 -2.140625,-0.75 -0.789063,-0.75782 -0.789063,-2.02344 0,-1.47656 0.984375,-2.22656 0.992188,-0.75 2.953125,-0.75 h 2.015625 v -0.14063 q 0,-0.99219 -0.65625,-1.53125 -0.648437,-0.54687 -1.828125,-0.54687 -0.75,0 -1.460937,0.17968 -0.710938,0.17969 -1.367188,0.53907 V -620.25 q 0.789063,-0.30469 1.53125,-0.45312 0.742188,-0.15625 1.445313,-0.15625 1.898437,0 2.835937,0.98437 0.9375,0.98438 0.9375,2.98438 z"
         id="path8157"
         inkscape:connector-curvature="0" />
      <path
         d="m 112.08203,-618.96875 q 0.53906,-0.96875 1.28906,-1.42969 0.75,-0.46093 1.76563,-0.46093 1.36719,0 2.10937,0.96093 0.74219,0.95313 0.74219,2.71875 v 5.28125 h -1.44531 v -5.23437 q 0,-1.25781 -0.44531,-1.86719 -0.44532,-0.60937 -1.35938,-0.60937 -1.11719,0 -1.76562,0.74218 -0.64844,0.74219 -0.64844,2.02344 v 4.94531 h -1.44531 v -5.23437 q 0,-1.26563 -0.44532,-1.86719 -0.44531,-0.60937 -1.375,-0.60937 -1.10156,0 -1.75,0.75 -0.64843,0.74218 -0.64843,2.01562 v 4.94531 h -1.44532 v -8.75 h 1.44532 v 1.35938 q 0.49218,-0.80469 1.17968,-1.1875 0.6875,-0.38281 1.63282,-0.38281 0.95312,0 1.61718,0.48437 0.67188,0.48438 0.99219,1.40625 z"
         id="path8159"
         inkscape:connector-curvature="0" />
      <path
         d="m 128.34766,-616.63281 v 0.70312 h -6.60938 q 0.0937,1.48438 0.89063,2.26563 0.80468,0.77344 2.23437,0.77344 0.82813,0 1.60156,-0.20313 0.78125,-0.20312 1.54688,-0.60937 v 1.35937 q -0.77344,0.32813 -1.58594,0.5 -0.8125,0.17188 -1.64844,0.17188 -2.09375,0 -3.32031,-1.21875 -1.21875,-1.21875 -1.21875,-3.29688 0,-2.14844 1.15625,-3.40625 1.16406,-1.26562 3.13281,-1.26562 1.76563,0 2.78907,1.14062 1.03125,1.13281 1.03125,3.08594 z m -1.4375,-0.42188 q -0.0156,-1.17968 -0.66407,-1.88281 -0.64062,-0.70312 -1.70312,-0.70312 -1.20313,0 -1.92969,0.67968 -0.71875,0.67969 -0.82812,1.91407 z m -1.38282,-7.64062 h 1.55469 l -2.54687,2.9375 h -1.19532 z"
         id="path8161"
         inkscape:connector-curvature="0" />
      <path
         d="m 132.12891,-623.13281 v 2.48437 h 2.96093 v 1.11719 h -2.96093 v 4.75 q 0,1.07031 0.28906,1.375 0.29687,0.30469 1.19531,0.30469 h 1.47656 v 1.20312 h -1.47656 q -1.66406,0 -2.29687,-0.61718 -0.63282,-0.625 -0.63282,-2.26563 v -4.75 h -1.05468 v -1.11719 h 1.05468 v -2.48437 z"
         id="path8163"
         inkscape:connector-curvature="0" />
      <path
         d="m 142.05859,-619.30469 q -0.24218,-0.14062 -0.53125,-0.20312 -0.28125,-0.0703 -0.625,-0.0703 -1.21875,0 -1.875,0.79687 -0.64843,0.78906 -0.64843,2.27344 v 4.60937 h -1.44532 v -8.75 h 1.44532 v 1.35938 q 0.45312,-0.79688 1.17968,-1.17969 0.72657,-0.39062 1.76563,-0.39062 0.14844,0 0.32812,0.0234 0.17969,0.0156 0.39844,0.0547 z"
         id="path8165"
         inkscape:connector-curvature="0" />
      <path
         d="m 143.58203,-620.64844 h 1.4375 v 8.75 h -1.4375 z m 0,-3.40625 h 1.4375 v 1.82032 h -1.4375 z"
         id="path8167"
         inkscape:connector-curvature="0" />
      <path
         d="m 154.31641,-620.3125 v 1.34375 q -0.60938,-0.33594 -1.22657,-0.5 -0.60937,-0.17187 -1.23437,-0.17187 -1.39844,0 -2.17188,0.89062 -0.77343,0.88281 -0.77343,2.48438 0,1.60156 0.77343,2.49218 0.77344,0.88282 2.17188,0.88282 0.625,0 1.23437,-0.16407 0.61719,-0.17187 1.22657,-0.50781 v 1.32813 q -0.60157,0.28125 -1.25,0.42187 -0.64063,0.14063 -1.36719,0.14063 -1.97656,0 -3.14063,-1.24219 -1.16406,-1.24219 -1.16406,-3.35156 0,-2.14063 1.17188,-3.36719 1.17968,-1.22656 3.22656,-1.22656 0.66406,0 1.29687,0.14062 0.63282,0.13281 1.22657,0.40625 z"
         id="path8169"
         inkscape:connector-curvature="0" />
      <path
         d="m 160.80859,-616.29687 q -1.74218,0 -2.41406,0.39843 -0.67187,0.39844 -0.67187,1.35938 0,0.76562 0.5,1.21875 0.50781,0.44531 1.375,0.44531 1.19531,0 1.91406,-0.84375 0.72656,-0.85156 0.72656,-2.25781 v -0.32031 z m 2.86719,-0.59375 v 4.99218 h -1.4375 v -1.32812 q -0.49219,0.79687 -1.22656,1.17969 -0.73438,0.375 -1.79688,0.375 -1.34375,0 -2.14062,-0.75 -0.78906,-0.75782 -0.78906,-2.02344 0,-1.47656 0.98437,-2.22656 0.99219,-0.75 2.95313,-0.75 h 2.01562 v -0.14063 q 0,-0.99219 -0.65625,-1.53125 -0.64844,-0.54687 -1.82812,-0.54687 -0.75,0 -1.46094,0.17968 -0.71094,0.17969 -1.36719,0.53907 V -620.25 q 0.78906,-0.30469 1.53125,-0.45312 0.74219,-0.15625 1.44531,-0.15625 1.89844,0 2.83594,0.98437 0.9375,0.98438 0.9375,2.98438 z"
         id="path8171"
         inkscape:connector-curvature="0" />
    </g>
    <rect
       y="74.877457"
       x="94.543037"
       height="14.250076"
       width="13.639709"
       id="rect7230"
       style="opacity:1;fill:#f0f0f0;fill-opacity:1;stroke:none;stroke-width:1.38606954;stroke-linecap:butt;stroke-linejoin:round;stroke-miterlimit:4;stroke-dasharray:none;stroke-opacity:1" />
    <g
       aria-label="#5"
       transform="matrix(0.26458333,0,0,0.26458333,172.12036,277.82038)"
       style="font-style:normal;font-weight:normal;font-size:16px;line-height:1.25;font-family:sans-serif;letter-spacing:0px;word-spacing:0px;fill:#000000;fill-opacity:1;stroke:none"
       id="flowRoot7238">
      <path
         d="m -277.33789,-756.24414 h -2.27344 l -0.65625,2.60937 h 2.28906 z m -1.17188,-4.44531 -0.8125,3.24218 h 2.28125 l 0.82032,-3.24218 h 1.25 l -0.80469,3.24218 h 2.4375 v 1.20313 h -2.74219 l -0.64062,2.60937 h 2.48437 v 1.19532 h -2.78906 l -0.8125,3.23437 h -1.25 l 0.80469,-3.23437 h -2.28907 l -0.80468,3.23437 h -1.25782 l 0.8125,-3.23437 h -2.46093 v -1.19532 h 2.75 l 0.65625,-2.60937 h -2.51563 v -1.20313 h 2.82031 l 0.79688,-3.24218 z"
         id="path8110"
         inkscape:connector-curvature="0" />
      <path
         d="m -270.38477,-760.86914 h 6.19532 v 1.32812 h -4.75 v 2.85938 q 0.34375,-0.11719 0.6875,-0.17188 0.34375,-0.0625 0.6875,-0.0625 1.95312,0 3.09375,1.07032 1.14062,1.07031 1.14062,2.89843 0,1.88282 -1.17187,2.92969 -1.17188,1.03906 -3.30469,1.03906 -0.73438,0 -1.5,-0.125 -0.75781,-0.125 -1.57031,-0.375 v -1.58593 q 0.70312,0.38281 1.45312,0.57031 0.75,0.1875 1.58594,0.1875 1.35156,0 2.14062,-0.71094 0.78907,-0.71094 0.78907,-1.92969 0,-1.21875 -0.78907,-1.92968 -0.78906,-0.71094 -2.14062,-0.71094 -0.63281,0 -1.26563,0.14062 -0.625,0.14063 -1.28125,0.4375 z"
         id="path8112"
         inkscape:connector-curvature="0" />
    </g>
    <g
       style="font-style:normal;font-weight:400;font-size:37.5px;font-family:Inter;fill:#70b36b;fill-opacity:1;fill-rule:evenodd;stroke:#000000;stroke-width:1;stroke-linecap:square;stroke-linejoin:bevel;stroke-opacity:0"
       font-style="normal"
       transform="matrix(0.08464546,0,0,0.08464546,-165.74336,55.46152)"
       font-size="37.5"
       font-weight="400"
       id="g2615">
      <circle
         style="vector-effect:non-scaling-stroke"
         cx="2526.6101"
         cy="346.879"
         r="35.433102"
         id="circle2613" />
    </g>
    <g
       id="g476"
       font-weight="400"
       font-size="37.5"
       transform="matrix(0.08464545,0,0,0.08464545,-169.93687,-41.24176)"
       font-style="normal"
       style="font-style:normal;font-weight:400;font-size:37.5px;font-family:Inter;fill:#70b36b;fill-opacity:1;fill-rule:evenodd;stroke:#000000;stroke-width:1;stroke-linecap:square;stroke-linejoin:bevel;stroke-opacity:0">
      <circle
         id="circle474"
         r="35.433102"
         cy="1489.33"
         cx="2735.3799"
         style="vector-effect:non-scaling-stroke" />
    </g>
    <g
       id="g480-6"
       font-weight="400"
       font-size="37.5"
       transform="matrix(0.08464545,0,0,0.08464545,-156.45899,-41.24176)"
       font-style="normal"
       style="font-style:normal;font-weight:400;font-size:37.5px;font-family:Inter;fill:#b74444;fill-opacity:1;fill-rule:evenodd;stroke:#000000;stroke-width:1;stroke-linecap:square;stroke-linejoin:bevel;stroke-opacity:0">
      <circle
         id="circle478"
         r="35.433102"
         cy="1489.33"
         cx="2735.3799"
         style="vector-effect:non-scaling-stroke" />
    </g>
    <g
       style="font-style:normal;font-weight:400;font-size:37.5px;font-family:Inter;fill:#ffca4c;fill-opacity:1;fill-rule:evenodd;stroke:#000000;stroke-width:1;stroke-linecap:square;stroke-linejoin:bevel;stroke-opacity:0"
       font-style="normal"
       transform="matrix(0.08464546,0,0,0.08464546,-125.30968,55.46152)"
       font-size="37.5"
       font-weight="400"
       id="g3385">
      <circle
         style="vector-effect:non-scaling-stroke;fill:#ffca4c;fill-opacity:1"
         cx="2526.6101"
         cy="346.879"
         r="35.433102"
         id="circle3383" />
    </g>
  </g>
</svg>
