<?xml version="1.0" encoding="UTF-8" standalone="no"?>
<svg
   xmlns:dc="http://purl.org/dc/elements/1.1/"
   xmlns:cc="http://creativecommons.org/ns#"
   xmlns:rdf="http://www.w3.org/1999/02/22-rdf-syntax-ns#"
   xmlns:svg="http://www.w3.org/2000/svg"
   xmlns="http://www.w3.org/2000/svg"
   xmlns:sodipodi="http://sodipodi.sourceforge.net/DTD/sodipodi-0.dtd"
   xmlns:inkscape="http://www.inkscape.org/namespaces/inkscape"
   id="svg8"
   version="1.1"
   viewBox="0 0 65.582677 23.056161"
   height="23.056162mm"
   width="65.582672mm"
   sodipodi:docname="logo-dark-bg.svg"
   inkscape:version="0.92.4 (5da689c313, 2019-01-14)">
  <sodipodi:namedview
     pagecolor="#ffffff"
     bordercolor="#666666"
     borderopacity="1"
     objecttolerance="10"
     gridtolerance="10"
     guidetolerance="10"
     inkscape:pageopacity="0"
     inkscape:pageshadow="2"
     inkscape:window-width="1366"
     inkscape:window-height="713"
     id="namedview24"
     showgrid="false"
     inkscape:snap-page="true"
     inkscape:snap-center="true"
     inkscape:snap-object-midpoints="true"
     inkscape:snap-smooth-nodes="true"
     inkscape:snap-midpoints="true"
     inkscape:snap-intersection-paths="true"
     inkscape:object-paths="true"
     inkscape:snap-bbox="true"
     inkscape:bbox-paths="true"
     inkscape:snap-bbox-edge-midpoints="true"
     inkscape:bbox-nodes="true"
     inkscape:snap-bbox-midpoints="true"
     fit-margin-top="0"
     fit-margin-left="0"
     fit-margin-right="0"
     fit-margin-bottom="0"
     inkscape:zoom="1.3254646"
     inkscape:cx="85.169289"
     inkscape:cy="-75.96272"
     inkscape:window-x="0"
     inkscape:window-y="27"
     inkscape:window-maximized="1"
     inkscape:current-layer="svg8" />
  <defs
     id="defs2" />
  <metadata
     id="metadata5">
    <rdf:RDF>
      <cc:Work
         rdf:about="">
        <dc:format>image/svg+xml</dc:format>
        <dc:type
           rdf:resource="http://purl.org/dc/dcmitype/StillImage" />
        <dc:title></dc:title>
      </cc:Work>
    </rdf:RDF>
  </metadata>
  <g
     id="g868"
     transform="translate(-2.844428e-6,-5.8816644e-5)">
    <g
       id="flowRoot1122-7"
       style="font-style:normal;font-weight:normal;font-size:16px;line-height:1.25;font-family:sans-serif;letter-spacing:0px;word-spacing:0px;fill:#f5f5f5;fill-opacity:1;stroke:none"
       transform="matrix(1.440212,0,0,1.440212,1366.2657,-55.184021)"
       aria-label="arrio">
      <path
         id="path941"
         d="m -933.70508,46.111328 q -1.74219,0 -2.41406,0.398438 -0.67188,0.398437 -0.67188,1.359375 0,0.765625 0.5,1.21875 0.50782,0.445312 1.375,0.445312 1.19532,0 1.91407,-0.84375 0.72656,-0.851562 0.72656,-2.257812 v -0.320313 z m 2.86719,-0.59375 v 4.992188 h -1.4375 v -1.328125 q -0.49219,0.796875 -1.22656,1.179687 -0.73438,0.375 -1.79688,0.375 -1.34375,0 -2.14062,-0.75 -0.78907,-0.757812 -0.78907,-2.023437 0,-1.476563 0.98438,-2.226563 0.99219,-0.75 2.95312,-0.75 h 2.01563 v -0.140625 q 0,-0.992187 -0.65625,-1.53125 -0.64844,-0.546875 -1.82813,-0.546875 -0.75,0 -1.46093,0.179688 -0.71094,0.179687 -1.36719,0.539062 v -1.328125 q 0.78906,-0.304687 1.53125,-0.453125 0.74219,-0.15625 1.44531,-0.15625 1.89844,0 2.83594,0.984375 0.9375,0.984375 0.9375,2.984375 z"
         inkscape:connector-curvature="0" />
      <path
         id="path943"
         d="m -922.79883,43.103516 q -0.24219,-0.140625 -0.53125,-0.203125 -0.28125,-0.07031 -0.625,-0.07031 -1.21875,0 -1.875,0.796875 -0.64844,0.789063 -0.64844,2.273438 v 4.609375 h -1.44531 v -8.75 h 1.44531 v 1.359375 q 0.45313,-0.796875 1.17969,-1.179688 0.72656,-0.390625 1.76563,-0.390625 0.14843,0 0.32812,0.02344 0.17969,0.01563 0.39844,0.05469 z"
         inkscape:connector-curvature="0" />
      <path
         id="path945"
         d="m -916.48633,43.103516 q -0.24219,-0.140625 -0.53125,-0.203125 -0.28125,-0.07031 -0.625,-0.07031 -1.21875,0 -1.875,0.796875 -0.64844,0.789063 -0.64844,2.273438 v 4.609375 h -1.44531 v -8.75 h 1.44531 v 1.359375 q 0.45313,-0.796875 1.17969,-1.179688 0.72656,-0.390625 1.76563,-0.390625 0.14843,0 0.32812,0.02344 0.17969,0.01563 0.39844,0.05469 z"
         inkscape:connector-curvature="0" />
      <path
         id="path947"
         d="m -914.96289,41.759766 h 1.4375 v 8.75 h -1.4375 z m 0,-3.40625 h 1.4375 v 1.820312 h -1.4375 z"
         inkscape:connector-curvature="0" />
      <path
         id="path949"
         d="m -907.13477,42.767578 q -1.15625,0 -1.82812,0.90625 -0.67188,0.898438 -0.67188,2.46875 0,1.570313 0.66407,2.476563 0.67187,0.898437 1.83593,0.898437 1.14844,0 1.82032,-0.90625 0.67187,-0.90625 0.67187,-2.46875 0,-1.554687 -0.67187,-2.460937 -0.67188,-0.914063 -1.82032,-0.914063 z m 0,-1.21875 q 1.875,0 2.94532,1.21875 1.07031,1.21875 1.07031,3.375 0,2.148438 -1.07031,3.375 -1.07032,1.21875 -2.94532,1.21875 -1.88281,0 -2.95312,-1.21875 -1.0625,-1.226562 -1.0625,-3.375 0,-2.15625 1.0625,-3.375 1.07031,-1.21875 2.95312,-1.21875 z"
         inkscape:connector-curvature="0" />
    </g>
    <g
       id="g1114-3"
       style="font-style:normal;font-weight:normal;font-size:16px;line-height:1.25;font-family:sans-serif;letter-spacing:0px;word-spacing:0px;fill:#007161;fill-opacity:1;stroke:none"
       transform="matrix(0,1.4821662,-1.440212,0,69.833407,1447.8858)"
       aria-label="m">
      <path
         style="fill:#007161;fill-opacity:1"
         sodipodi:nodetypes="csscsccscscsccscscscccccscc"
         inkscape:connector-curvature="0"
         id="path1112-6"
         d="m -970.51758,41.417969 c 0.35937,-0.645833 0.78906,-1.122396 1.28906,-1.429688 0.5,-0.307291 1.08854,-0.460937 1.76563,-0.460937 0.91146,0 1.61458,0.320312 2.10937,0.960937 0.49479,0.635417 0.74219,1.541667 0.74219,2.71875 v 5.28125 h -1.44531 v -5.234375 c 0,-0.838541 -0.14844,-1.460937 -0.44531,-1.867187 -0.29688,-0.40625 -0.75001,-0.609375 -1.35938,-0.609375 -0.74479,0 -1.33333,0.247396 -1.76562,0.742187 -0.43229,0.494792 -0.64844,1.169271 -0.64844,2.023438 v 4.945312 h -1.44531 v -5.234375 c 0,-0.84375 -0.14844,-1.466146 -0.44532,-1.867187 -0.29687,-0.40625 -0.75521,-0.609375 -1.375,-0.609375 -0.73437,0 -1.31771,0.25 -1.75,0.75 -0.43229,0.494791 -0.64843,1.166666 -0.64843,2.015625 v 4.945312 h -0.93193 v -2.34375 c 0.0893,-1.51174 -0.24724,-3.587453 0.88458,-5.15736 0.41522,-0.464819 0.7687,-0.821806 1.22703,-1.077015 0.45833,-0.255208 1.00261,-0.382812 1.63282,-0.382812 0.63541,0 1.17447,0.161458 1.61718,0.484375 0.44792,0.322917 0.77865,0.791667 0.99219,1.40625 z" />
    </g>
    <g
       id="flowRoot1130-5"
       style="font-style:normal;font-weight:normal;font-size:16px;line-height:1.25;font-family:sans-serif;letter-spacing:0px;word-spacing:0px;fill:#41c76e;fill-opacity:1;stroke:none"
       transform="matrix(0,1.440212,-1.440212,0,61.436872,1398.3321)"
       aria-label="i">
      <path
         id="path938"
         d="m -956.34961,33.908203 h 1.4375 v 8.75 h -1.4375 z m 0,-3.40625 h 1.4375 v 1.820313 h -1.4375 z"
         inkscape:connector-curvature="0" />
    </g>
  </g>
</svg>
